  -1.6909842e-01  -4.1334370e-01  -9.7607993e-01
  -2.3916272e-01  -5.2270894e-01  -9.4352628e-01
  -1.7584049e-01  -6.3103603e-01  -9.1505281e-01
  -3.2392616e-02  -4.1360395e-01  -9.8229536e-01
  -1.0404834e-01  -5.2323708e-01  -9.5549229e-01
   1.0136395e-01  -4.2143525e-01  -9.7873138e-01
   3.3227568e-02  -5.3060710e-01  -9.5598791e-01
   1.6069339e-01  -5.3912500e-01  -9.4724186e-01
  -3.6500838e-01  -2.8656772e-01  -9.7238052e-01
  -4.2584026e-01  -4.0686627e-01  -9.3905290e-01
  -3.0027642e-01  -4.0492412e-01  -9.6308835e-01
  -2.2870641e-01  -2.9294225e-01  -9.8979298e-01
  -1.0380994e-01  -3.0138722e-01  -9.9757849e-01
   3.8887230e-02  -3.0202232e-01  -9.9943298e-01
   2.3147785e-01  -4.1265593e-01  -9.7037401e-01
   1.6367614e-01  -3.0336074e-01  -9.9394236e-01
   3.0899701e-01  -2.9249313e-01  -9.8028721e-01
   3.5625830e-01  -4.2207080e-01  -9.5023404e-01
   4.3881449e-01  -3.2276321e-01  -9.5239066e-01
  -4.1956280e-01  -1.4888001e-01  -9.7636784e-01
  -5.3576904e-01  -1.7462125e-01  -9.4696100e-01
  -4.8164192e-01  -2.8366107e-01  -9.4830470e-01
  -2.9659137e-01  -1.8602054e-01  -9.9314167e-01
  -1.6591813e-01  -1.6713082e-01  -1.0070575e+00
  -3.8424023e-02  -2.0252293e-01  -1.0096537e+00
   8.6687758e-02  -1.6928541e-01  -1.0109084e+00
   2.1222371e-01  -2.0140540e-01  -1.0009104e+00
   3.1970105e-01  -1.4668595e-01  -9.9289456e-01
   4.2729818e-01  -2.0554691e-01  -9.7014511e-01
  -4.0051990e-01  -2.4907193e-02  -9.8476680e-01
  -5.4572485e-01  -5.6243473e-02  -9.5129444e-01
  -2.8414140e-01  -7.3285036e-02  -1.0008063e+00
  -1.6353342e-01  -3.3922134e-02  -1.0125421e+00
  -4.0872690e-02  -8.8350812e-02  -1.0161367e+00
   7.6765375e-02  -3.0711949e-02  -1.0166477e+00
   1.9608880e-01  -7.7793590e-02  -1.0092530e+00
   3.1061444e-01  -1.0280048e-02  -9.9862935e-01
   5.3688592e-01  -1.2717818e-01  -9.5040131e-01
   4.2564002e-01  -6.7615050e-02  -9.7921879e-01
   6.3269557e-01  -6.5448364e-02  -9.2252673e-01
  -3.8386111e-01   1.2196341e-01  -9.8450316e-01
  -4.8871091e-01   5.2223647e-02  -9.6614300e-01
  -2.8169617e-01   5.5948677e-02  -1.0015543e+00
  -1.6616613e-01   9.6351691e-02  -1.0107653e+00
  -4.3913994e-02   3.7894303e-02  -1.0173178e+00
   7.9056728e-02   1.0399535e-01  -1.0146622e+00
   1.9394149e-01   5.2589802e-02  -1.0100739e+00
   3.0745622e-01   1.2592116e-01  -9.9573143e-01
   5.3074073e-01   1.0426389e-02  -9.5620391e-01
   4.2070853e-01   6.9348406e-02  -9.8011209e-01
  -5.1204027e-01   1.7211863e-01  -9.5365519e-01
  -2.7587336e-01   2.0175455e-01  -9.9436937e-01
  -4.0480064e-01   2.5080402e-01  -9.6968654e-01
  -1.5045708e-01   2.1372375e-01  -1.0044559e+00
  -3.5792459e-02   1.6289926e-01  -1.0125571e+00
   7.4501369e-02   2.4070051e-01  -1.0054365e+00
   1.9152635e-01   1.8767514e-01  -1.0037243e+00
   3.0701230e-01   2.5781182e-01  -9.8483623e-01
   4.2427047e-01   2.0190895e-01  -9.7110531e-01
  -3.1032288e-01   3.3899376e-01  -9.7334835e-01
  -4.3502063e-01   3.8061726e-01  -9.4253202e-01
  -1.8606801e-01   3.2341324e-01  -9.8955518e-01
  -4.5181395e-02   2.9549477e-01  -1.0001330e+00
   6.2630673e-02   3.7484691e-01  -9.8841983e-01
   1.8300013e-01   3.2232934e-01  -9.8995269e-01
   4.2594890e-01   3.3161922e-01  -9.5375918e-01
   2.9573374e-01   3.8194087e-01  -9.6812034e-01
  -3.4044650e-01   4.7298325e-01  -9.4103936e-01
  -2.1719668e-01   4.4369858e-01  -9.6554415e-01
  -8.1064890e-02   4.1071757e-01  -9.8158937e-01
  -1.1892676e-01   5.2889449e-01  -9.5312637e-01
   1.7252555e-01   4.5826468e-01  -9.6657567e-01
   2.2533871e-02   4.8840533e-01  -9.6675005e-01
   3.0413163e-01   5.0005938e-01  -9.4023804e-01
  -2.6218856e-02   6.0657163e-01  -9.3298831e-01
  -9.6291335e-02  -8.1948312e-01  -8.1085656e-01
  -2.1985204e-01  -7.5224327e-01  -8.4566756e-01
  -1.7488943e-01  -8.6093594e-01  -7.3904448e-01
   2.6885086e-02  -8.3966360e-01  -7.9516802e-01
  -4.2705714e-02  -8.9215416e-01  -7.0215669e-01
   1.8684464e-02  -7.4464790e-01  -8.7112602e-01
   1.0645124e-01  -8.7962447e-01  -7.2241353e-01
   1.4000024e-01  -7.8200318e-01  -8.3758123e-01
  -4.2803597e-01  -6.2690799e-01  -8.6241191e-01
  -5.4999569e-01  -6.0976712e-01  -8.1466425e-01
  -4.7327382e-01  -7.1686299e-01  -7.7146031e-01
  -2.9732686e-01  -6.4156003e-01  -8.9162683e-01
  -3.5582575e-01  -7.3189074e-01  -8.2143242e-01
  -1.0386215e-01  -7.2342399e-01  -8.7915965e-01
  -3.6569850e-02  -6.2879612e-01  -9.2486236e-01
   9.2019114e-02  -6.5479930e-01  -9.1251918e-01
   2.5876552e-01  -7.6255705e-01  -8.2882293e-01
   2.0662946e-01  -6.6265683e-01  -8.9793113e-01
   3.2505855e-01  -6.4296813e-01  -8.8477058e-01
   3.7418630e-01  -7.3024267e-01  -8.1526328e-01
   4.5794015e-01  -6.3999256e-01  -8.4327829e-01
  -6.1106626e-01  -4.9293936e-01  -8.4464682e-01
  -7.1917394e-01  -4.6850428e-01  -7.7241793e-01
  -6.5901742e-01  -5.7351452e-01  -7.4830797e-01
  -4.9119046e-01  -5.1297305e-01  -8.9006575e-01
  -3.6324863e-01  -5.2478493e-01  -9.2169996e-01
   2.7987167e-01  -5.3475540e-01  -9.3420974e-01
   4.0907044e-01  -5.4250030e-01  -9.0467225e-01
   5.4895501e-01  -5.4570961e-01  -8.5251895e-01
   4.8352761e-01  -4.5013868e-01  -9.1277267e-01
   6.1986297e-01  -4.4528388e-01  -8.5976183e-01
  -6.1211171e-01  -2.7386469e-01  -9.0855805e-01
  -6.7458183e-01  -3.7412546e-01  -8.5434294e-01
  -5.5138680e-01  -3.9149038e-01  -9.0609568e-01
   5.5485324e-01  -3.5467298e-01  -9.1364101e-01
   7.2292962e-01  -4.0540938e-01  -8.0715337e-01
   6.6557067e-01  -3.0911630e-01  -8.7748221e-01
   8.0624412e-01  -3.4670492e-01  -7.4080505e-01
  -7.7260084e-01  -1.1573132e-01  -8.4747129e-01
  -8.2931437e-01  -2.1200837e-01  -7.7562010e-01
  -7.2638839e-01  -2.4058904e-01  -8.5847367e-01
  -6.5321376e-01  -1.4206774e-01  -9.0945957e-01
   5.6089691e-01  -2.3687840e-01  -9.3239251e-01
   6.7931305e-01  -1.7437996e-01  -8.9447073e-01
   7.6405307e-01  -2.6115967e-01  -8.2697250e-01
  -8.0684478e-01   6.1980213e-03  -8.2747017e-01
  -8.6770522e-01  -8.6110960e-02  -7.5123951e-01
  -6.8597224e-01  -2.4513438e-02  -9.0152266e-01
   7.3691605e-01  -3.3572271e-02  -8.7531331e-01
   7.9513820e-01  -1.2746418e-01  -8.2880259e-01
  -7.2910977e-01   1.0014798e-01  -8.7629500e-01
  -8.8784121e-01   3.9942815e-02  -7.1544184e-01
  -6.0870228e-01   6.8896856e-02  -9.3109597e-01
   5.3734751e-01   1.4167489e-01  -9.4925567e-01
   6.4580266e-01   6.4473726e-02  -9.1749340e-01
   7.5682593e-01   9.6827176e-02  -8.5990934e-01
  -8.3298481e-01   1.3063193e-01  -7.9165683e-01
  -6.3528986e-01   1.9447737e-01  -9.1119727e-01
  -7.5004286e-01   2.2504031e-01  -8.4613098e-01
  -5.3367857e-01   2.9243671e-01  -9.3250177e-01
   5.4151384e-01   2.7274399e-01  -9.3326857e-01
   6.5385967e-01   1.9025378e-01  -9.0398699e-01
   7.6284784e-01   2.2041836e-01  -8.3787935e-01
  -6.5395825e-01   3.1764009e-01  -8.8125744e-01
  -7.5845106e-01   3.4749087e-01  -8.0153843e-01
  -5.5829537e-01   4.1533874e-01  -8.9711533e-01
   4.1435196e-01   4.5167381e-01  -9.3097252e-01
   5.4509035e-01   4.0488971e-01  -9.0486452e-01
   6.5561632e-01   3.1410089e-01  -8.8128157e-01
   7.6021260e-01   3.3726735e-01  -8.0426312e-01
  -6.7254655e-01   4.3747887e-01  -8.3127505e-01
  -4.6118384e-01   5.0845464e-01  -9.0150335e-01
  -5.7713286e-01   5.3436019e-01  -8.4359771e-01
  -3.6723944e-01   6.0246847e-01  -8.9239034e-01
  -2.4654914e-01   5.6993884e-01  -9.2811327e-01
   1.1126949e-01   5.7032440e-01  -9.4157378e-01
   2.4012657e-01   5.8667457e-01  -9.2334339e-01
   3.8610864e-01   5.9732168e-01  -8.8954422e-01
   4.9186316e-01   5.2551752e-01  -8.8512699e-01
   6.5799826e-01   4.3373959e-01  -8.4242890e-01
   5.9587639e-01   5.3652037e-01  -8.3167607e-01
  -4.8227800e-01   6.2955363e-01  -8.3865683e-01
  -2.7481906e-01   6.9391434e-01  -8.7025292e-01
  -3.9240544e-01   7.2031645e-01  -8.1551095e-01
  -1.5104168e-01   6.5514079e-01  -9.0780416e-01
  -5.3950201e-02   7.3410535e-01  -8.7622157e-01
   5.7140686e-02   6.8857347e-01  -8.9942722e-01
   1.6993573e-01   6.8409487e-01  -8.9273036e-01
   3.0357535e-01   6.9023877e-01  -8.6557949e-01
   5.0568336e-01   6.3853488e-01  -8.2079074e-01
   4.1468097e-01   7.1858773e-01  -8.0633096e-01
  -2.9629408e-01   7.9916971e-01  -7.8044933e-01
  -1.7568141e-01   7.7234254e-01  -8.3941169e-01
  -5.7699131e-02   8.3248353e-01  -8.0130898e-01
   7.2402584e-02   7.9483075e-01  -8.3467214e-01
   2.0044287e-01   7.7429260e-01  -8.3331016e-01
   3.1219191e-01   7.9548223e-01  -7.7754159e-01
  -2.8299686e-01  -8.1699874e-01  -7.6320655e-01
  -3.9588802e-01  -7.9994674e-01  -7.0421117e-01
  -2.8951878e-01  -8.5532412e-01  -6.4419972e-01
  -1.7180888e-01  -8.8662523e-01  -6.1930392e-01
  -5.7404333e-02  -8.9779648e-01  -5.8284888e-01
   6.4288265e-02  -8.9975750e-01  -6.0288547e-01
   1.9065242e-01  -8.8220110e-01  -6.0924624e-01
   2.2527513e-01  -8.5014735e-01  -7.3708633e-01
   3.4866787e-01  -8.1220436e-01  -7.2756241e-01
   3.1027412e-01  -8.4792264e-01  -6.1472170e-01
   4.7123924e-01  -7.3850886e-01  -7.4384512e-01
  -5.7424617e-01  -6.8192078e-01  -7.0749435e-01
  -4.9035762e-01  -7.5858546e-01  -6.3633021e-01
   5.6448490e-01  -6.4384112e-01  -7.7525253e-01
   5.4749165e-01  -7.1721286e-01  -6.5428343e-01
   6.3979350e-01  -6.2726301e-01  -6.9195043e-01
  -7.3786656e-01  -5.2103514e-01  -6.3570972e-01
  -6.5702031e-01  -6.1977803e-01  -6.3858890e-01
   6.6930888e-01  -5.3490099e-01  -7.7452218e-01
   7.0963118e-01  -5.5895960e-01  -6.3075820e-01
   7.6160789e-01  -4.6925189e-01  -6.9734751e-01
  -7.7613631e-01  -3.3575971e-01  -7.8873318e-01
  -8.4550272e-01  -3.0474567e-01  -6.7955510e-01
  -7.9095201e-01  -4.1969638e-01  -6.9422355e-01
   8.1471373e-01  -3.8825227e-01  -6.0826348e-01
  -8.8332073e-01  -1.8242538e-01  -6.5779874e-01
   8.4925652e-01  -2.0580536e-01  -7.4792718e-01
   8.5766210e-01  -2.8046160e-01  -6.5363972e-01
   8.8818915e-01  -1.6374399e-01  -6.2035640e-01
  -9.0156054e-01  -5.4924573e-02  -6.2281486e-01
   8.3671700e-01   5.8776119e-03  -7.9888048e-01
   8.8239991e-01  -8.2048146e-02  -7.2200844e-01
  -8.9625144e-01   7.0670999e-02  -5.7900312e-01
   8.4987213e-01   1.3525989e-01  -7.6922653e-01
   8.9719055e-01   4.5519276e-02  -6.8157415e-01
  -8.3742903e-01   2.5196237e-01  -7.4670116e-01
  -8.8574912e-01   1.6517501e-01  -6.6573772e-01
   8.4322497e-01   2.5870980e-01  -7.3173581e-01
   8.8705745e-01   1.6980383e-01  -6.4024571e-01
  -8.1961101e-01   3.6478726e-01  -6.8721770e-01
  -8.5655363e-01   2.8448882e-01  -6.0917535e-01
   7.4592934e-01   4.4715082e-01  -7.5512306e-01
   8.1615015e-01   3.7596273e-01  -6.8039320e-01
  -7.5934933e-01   4.5905992e-01  -7.1917912e-01
  -6.7901350e-01   5.4003403e-01  -7.5856941e-01
  -7.3839352e-01   5.1961786e-01  -6.1456578e-01
   6.8393708e-01   5.4761036e-01  -7.4364507e-01
   7.5531142e-01   4.9536160e-01  -6.3693540e-01
  -6.6673966e-01   6.0646003e-01  -6.6360945e-01
  -5.8529821e-01   6.3803955e-01  -7.6133558e-01
  -5.8012929e-01   6.9236749e-01  -6.3576714e-01
   5.1280164e-01   7.2744603e-01  -7.1186073e-01
   6.0405102e-01   6.4228396e-01  -7.3241761e-01
   6.7682275e-01   5.9806426e-01  -6.2168017e-01
  -4.9726061e-01   7.2620756e-01  -7.3574286e-01
  -4.0192919e-01   7.9930853e-01  -6.9694786e-01
  -1.8624570e-01   8.5676995e-01  -7.4245355e-01
  -2.9650156e-01   8.5227727e-01  -6.5333717e-01
  -7.2318232e-02   8.9254662e-01  -6.9396866e-01
   5.5851642e-02   8.7682031e-01  -7.3888935e-01
   1.8195966e-01   8.5296484e-01  -7.5090899e-01
   4.0898576e-01   7.9803895e-01  -6.8888433e-01
   2.8854481e-01   8.5345406e-01  -6.6651854e-01
   4.8261212e-01   7.5915043e-01  -5.8244239e-01
  -1.8779670e-01   8.8310752e-01  -6.1375184e-01
  -7.4604273e-02   8.9386566e-01  -5.6730356e-01
   3.9112461e-02   9.0217420e-01  -6.1700950e-01
   1.6128208e-01   8.8873794e-01  -6.3720352e-01
  -3.8388608e-01  -8.1034724e-01  -5.6577433e-01
  -2.6381886e-01  -8.4392450e-01  -5.1645546e-01
  -1.3965328e-01  -8.6404810e-01  -4.8938359e-01
   1.2304284e-03  -8.7107238e-01  -4.7782818e-01
   1.3207257e-01  -8.6435476e-01  -4.8692297e-01
   2.5841396e-01  -8.3764334e-01  -4.9320014e-01
   3.8116143e-01  -7.9457542e-01  -5.0713099e-01
   4.3331958e-01  -7.9261258e-01  -6.2853473e-01
  -5.7323311e-01  -6.9033306e-01  -5.6905458e-01
  -4.6887815e-01  -7.4386617e-01  -5.0116188e-01
   4.4663127e-01  -7.1981498e-01  -4.1915385e-01
   5.0329843e-01  -7.3321482e-01  -5.3429858e-01
   6.1616257e-01  -6.5235297e-01  -5.6924797e-01
  -7.3371385e-01  -4.8583467e-01  -5.0319641e-01
  -6.6450524e-01  -5.8772357e-01  -5.2633591e-01
   6.7292079e-01  -5.6551138e-01  -5.0021283e-01
   7.5511990e-01  -4.7622856e-01  -5.4772185e-01
  -8.4976306e-01  -2.8115123e-01  -5.5792097e-01
  -8.0331198e-01  -4.0385297e-01  -5.7951271e-01
   7.8892909e-01  -3.6802021e-01  -4.7640823e-01
  -8.7569393e-01  -1.5360863e-01  -5.3330450e-01
   8.4755405e-01  -2.6921926e-01  -5.3411826e-01
   8.6485798e-01  -1.4469044e-01  -4.9400750e-01
  -8.7604068e-01  -2.2781902e-02  -4.9244910e-01
   8.9895174e-01  -4.4097166e-02  -5.8561032e-01
  -8.5233305e-01   9.9276193e-02  -4.4485279e-01
   8.8863949e-01   7.7141688e-02  -5.4456469e-01
  -8.6714534e-01   1.8949367e-01  -5.2804660e-01
   8.5411413e-01   2.8827728e-01  -5.9689404e-01
   8.5833100e-01   1.9486247e-01  -5.0376904e-01
   8.1127695e-01   3.1109326e-01  -4.7198206e-01
  -7.9660439e-01   4.1494806e-01  -5.7400794e-01
  -8.1829755e-01   3.0860202e-01  -4.8739356e-01
  -7.5490163e-01   4.1253938e-01  -4.5014633e-01
   7.9570711e-01   4.0783073e-01  -5.5368697e-01
  -7.1157635e-01   5.0914996e-01  -4.8856443e-01
   7.1649578e-01   5.1707279e-01  -5.1447111e-01
   7.4100912e-01   4.2249310e-01  -4.3271370e-01
   6.3274465e-01   6.0774331e-01  -4.9533558e-01
  -6.5072984e-01   6.0952207e-01  -5.4306378e-01
  -5.5697029e-01   6.8226615e-01  -5.0550230e-01
   5.8619433e-01   6.8554764e-01  -6.0229916e-01
   5.3268790e-01   6.8816407e-01  -4.7560651e-01
   4.2104163e-01   7.5561558e-01  -4.6195836e-01
  -4.8395762e-01   7.6085106e-01  -5.9949994e-01
  -3.7453511e-01   8.1244781e-01  -5.5587765e-01
  -2.6172547e-01   8.4213028e-01  -5.0898363e-01
   2.4474707e-01   8.5707027e-01  -5.4195640e-01
   2.9806943e-01   8.0060487e-01  -4.3577041e-01
   1.7723879e-01   8.3121676e-01  -4.2553172e-01
   3.6546296e-01   8.1784024e-01  -5.6131839e-01
  -1.4966530e-01   8.5855144e-01  -4.7897737e-01
   4.2550727e-03   8.7200407e-01  -4.8037667e-01
   1.1502205e-01   8.7540843e-01  -5.1236108e-01
  -3.4837429e-01  -7.7927540e-01  -4.3414423e-01
  -2.1643416e-01  -8.0810225e-01  -3.9563030e-01
  -1.4212423e-01  -7.6727380e-01  -2.7514531e-01
  -8.1922042e-02  -8.2653214e-01  -3.8256597e-01
   6.1143268e-02  -8.2548241e-01  -3.7644942e-01
   1.2754699e-01  -7.7210710e-01  -2.8007656e-01
   1.9809731e-01  -8.0455616e-01  -3.7825883e-01
  -5.6802261e-01  -6.4797443e-01  -4.5366023e-01
  -4.6643096e-01  -6.9206958e-01  -3.9123861e-01
  -3.7037910e-01  -7.1596133e-01  -3.3045762e-01
  -2.6406893e-01  -7.4824964e-01  -3.0366287e-01
   2.5717484e-01  -7.3140040e-01  -2.6397670e-01
   3.1928582e-01  -7.6927595e-01  -3.8759689e-01
   3.8640522e-01  -6.9521841e-01  -3.0773474e-01
   5.6613836e-01  -6.5016917e-01  -4.5468505e-01
  -6.4218502e-01  -5.4567131e-01  -4.0919630e-01
  -6.1081642e-01  -4.9584482e-01  -2.8915413e-01
  -5.4392126e-01  -5.9632011e-01  -3.3264273e-01
   5.1240783e-01  -6.3132233e-01  -3.4527819e-01
   7.1136523e-01  -4.6087454e-01  -4.2027432e-01
   6.2278378e-01  -5.5142015e-01  -3.8524407e-01
  -7.8367771e-01  -3.6668112e-01  -4.6250975e-01
  -7.4658437e-01  -3.2415875e-01  -3.4701750e-01
  -7.0263058e-01  -4.4050630e-01  -3.7979498e-01
   6.5938669e-01  -4.3814024e-01  -2.9980713e-01
   7.4151179e-01  -3.4602091e-01  -3.5623858e-01
  -8.2037196e-01  -2.4504186e-01  -4.4026980e-01
  -7.7781746e-01  -2.0347258e-01  -3.2601504e-01
   7.5976954e-01  -2.2403811e-01  -3.0073516e-01
   8.0942565e-01  -2.4505643e-01  -4.1594680e-01
  -8.3742631e-01  -1.1839633e-01  -4.1605119e-01
  -7.3915242e-01  -1.3866963e-01  -2.0889660e-01
   8.6219362e-01  -2.0774774e-02  -4.5551724e-01
   8.1758467e-01  -1.1912658e-01  -3.7317444e-01
  -8.2275680e-01   8.8875753e-03  -3.6587833e-01
   8.3907569e-01   1.0051392e-01  -4.1451375e-01
   8.0663185e-01   8.3133808e-03  -3.3169401e-01
  -8.1029473e-01   2.1435813e-01  -3.9911475e-01
  -7.8958909e-01   1.1236763e-01  -3.1233652e-01
  -7.4705555e-01   2.3533740e-01  -2.8155465e-01
   7.9905087e-01   2.1641312e-01  -3.7665352e-01
  -7.5076956e-01   3.3328514e-01  -3.6293177e-01
   7.5052546e-01   3.2367643e-01  -3.5427328e-01
  -6.2310201e-01   5.7541646e-01  -4.2150674e-01
  -6.7457088e-01   4.6061479e-01  -3.5317953e-01
  -5.7798615e-01   5.4646745e-01  -3.0781124e-01
   5.7370923e-01   5.9848148e-01  -3.7925810e-01
   6.5746244e-01   5.1129899e-01  -3.8753766e-01
  -4.4781789e-01   7.4414323e-01  -4.7098441e-01
  -5.2169430e-01   6.5032063e-01  -3.8936233e-01
  -4.0926520e-01   7.0812497e-01  -3.5542000e-01
   4.6023327e-01   6.7898799e-01  -3.6047652e-01
   5.0986021e-01   5.9365412e-01  -2.8002766e-01
  -3.2501975e-01   7.8328541e-01  -4.2125539e-01
  -1.9825231e-01   8.0098066e-01  -3.7088965e-01
  -2.8492457e-01   7.3769136e-01  -2.9792457e-01
  -6.8163236e-02   8.3401815e-01  -3.9610175e-01
  -6.7216737e-02   7.8817236e-01  -2.9841798e-01
   6.4266958e-02   8.2329523e-01  -3.7227879e-01
   6.6185580e-02   7.7203902e-01  -2.6302138e-01
   1.9978839e-01   7.7763759e-01  -3.2368832e-01
   3.4720658e-01   7.3591714e-01  -3.4657458e-01
  -1.9319707e-02  -7.8269011e-01  -2.8085859e-01
   3.1971439e-02  -7.4466772e-01  -1.9137880e-01
  -4.4604872e-01  -6.3384738e-01  -2.6345137e-01
  -3.3511361e-01  -6.7354642e-01  -2.0955587e-01
  -2.1666765e-01  -7.0882312e-01  -1.7992125e-01
  -9.0223077e-02  -7.2636893e-01  -1.5218497e-01
   3.1494127e-02  -7.1348731e-01  -7.9847815e-02
   1.5288045e-01  -7.2044548e-01  -1.6624157e-01
   2.5242729e-01  -6.7811562e-01  -1.2290162e-01
   3.5053606e-01  -6.5766704e-01  -1.9110584e-01
  -5.8284789e-01  -4.4906531e-01  -1.6410992e-01
  -5.1650268e-01  -5.4365898e-01  -2.0336986e-01
   4.3796871e-01  -5.7467564e-01  -1.1887324e-01
   4.6292879e-01  -6.0868338e-01  -2.3977014e-01
   5.7605008e-01  -5.2792367e-01  -2.7743968e-01
  -7.1307188e-01  -2.6616726e-01  -2.3126299e-01
  -6.6785891e-01  -3.8863317e-01  -2.5814058e-01
   6.1129394e-01  -4.1537901e-01  -1.7383254e-01
   6.9100094e-01  -3.2487671e-01  -2.3704385e-01
  -6.8847354e-01  -2.1310301e-01  -1.1135597e-01
   6.5543008e-01  -3.0080565e-01  -1.1327573e-01
   7.1400551e-01  -2.0295793e-01  -1.8298369e-01
  -7.8844273e-01  -8.0915919e-02  -3.0174497e-01
  -7.1552400e-01  -7.9628212e-02  -1.0812465e-01
   7.6561914e-01  -9.8214375e-02  -2.5630353e-01
  -7.5794249e-01   6.7932440e-03  -2.2364373e-01
  -7.1738458e-01   4.1968773e-02  -1.0224079e-01
   7.5327613e-01   2.7700782e-02  -2.1328690e-01
  -7.3417812e-01   1.3535699e-01  -1.9459144e-01
   7.7483785e-01   1.3661415e-01  -2.8926201e-01
  -6.8380286e-01   3.5965121e-01  -2.5794160e-01
  -6.8943691e-01   2.6054918e-01  -1.6785115e-01
  -6.2527330e-01   3.6760663e-01  -1.2949777e-01
   6.8109460e-01   4.0789234e-01  -3.0454701e-01
   7.2242219e-01   2.6565253e-01  -2.5134488e-01
   6.4648884e-01   3.7383891e-01  -1.9524134e-01
  -6.0689246e-01   4.5503185e-01  -2.2500717e-01
   5.9380075e-01   4.9750832e-01  -2.6257109e-01
   5.6283333e-01   4.6012431e-01  -1.3544436e-01
   4.8694827e-01   5.5571697e-01  -1.7328356e-01
  -4.7594587e-01   6.1726311e-01  -2.7320730e-01
  -3.6554078e-01   6.7232668e-01  -2.4106302e-01
  -4.0767873e-01   6.0687766e-01  -1.4942110e-01
  -2.7856573e-01   6.7753385e-01  -1.5414640e-01
   3.9887525e-01   6.5050925e-01  -2.3586236e-01
   3.8377882e-01   6.0823491e-01  -1.0484352e-01
   2.8753738e-01   7.1517348e-01  -2.5384484e-01
  -1.7964086e-01   7.4310705e-01  -2.3927978e-01
  -5.1249330e-02   7.4271321e-01  -1.8900914e-01
   6.5499090e-02   7.2396670e-01  -1.3525480e-01
   1.7334810e-01   7.2885038e-01  -2.0152077e-01
  -4.1841582e-01  -5.9461478e-01  -1.3579154e-01
  -3.0653709e-01  -6.4663869e-01  -8.7684460e-02
  -1.8786756e-01  -6.8513757e-01  -5.4515468e-02
  -7.5418034e-02  -7.0319708e-01  -1.0461980e-02
   4.3404017e-02  -7.0856658e-01   4.9924048e-02
   1.4788470e-01  -6.9280778e-01  -3.4158606e-02
   2.5552818e-01  -6.5976556e-01   1.9189756e-02
  -5.3956082e-01  -4.6096334e-01   4.7737882e-02
  -4.9625835e-01  -5.1049560e-01  -6.5951912e-02
  -3.9813686e-01  -5.8441684e-01  -5.9352280e-03
   3.4745757e-01  -6.1979590e-01  -5.5472018e-02
   4.5022945e-01  -5.4532459e-01   7.3316947e-03
   5.3262079e-01  -5.1395102e-01  -1.7696232e-01
  -6.4717283e-01  -3.3432528e-01  -1.4049629e-01
  -5.8458882e-01  -4.0230567e-01  -4.7610966e-02
   5.2987256e-01  -4.7589389e-01  -6.7674214e-02
   5.9752388e-01  -3.8057650e-01  -3.4349689e-02
  -6.8737461e-01  -1.6602069e-01   5.4212392e-03
  -6.4405620e-01  -2.9227759e-01  -1.2147649e-02
   6.5098834e-01  -2.7785894e-01   2.4980409e-02
   6.8631174e-01  -1.8384093e-01  -5.5171634e-02
  -7.0600240e-01  -4.4210975e-02   1.5744117e-02
   7.2226734e-01  -8.0386884e-02  -1.3455678e-01
   7.0399223e-01  -6.6398903e-02  -2.9539581e-03
  -7.0346212e-01   7.6763184e-02   2.1747439e-02
   7.1461860e-01   4.0853934e-02  -8.8565948e-02
  -6.9248382e-01   1.6899472e-01  -7.1575043e-02
   7.2256830e-01   1.5202913e-01  -1.7186102e-01
   6.9163353e-01   1.5568882e-01  -4.0447985e-02
   6.7453082e-01   2.6312309e-01  -1.2465946e-01
  -6.4874488e-01   2.8529938e-01  -3.7782293e-02
  -5.9237346e-01   3.8669900e-01   1.6684089e-02
   6.1324741e-01   3.6097656e-01  -6.3488517e-02
  -5.1368339e-01   5.3511551e-01  -1.8152161e-01
  -5.5165121e-01   4.5582968e-01  -8.7659472e-02
  -4.6164003e-01   5.3946358e-01  -5.1064563e-02
   4.7204670e-01   5.3011256e-01  -4.9266254e-02
   5.4662328e-01   4.4859756e-01   4.8093824e-03
  -3.5047969e-01   6.1626746e-01  -4.0647698e-02
  -1.5899727e-01   7.0391420e-01  -1.1527514e-01
  -2.4242940e-01   6.6466787e-01  -1.8693824e-02
  -1.3112516e-01   6.9544520e-01   2.2962820e-02
   2.8784116e-01   6.6998094e-01  -1.4311449e-01
   2.7770208e-01   6.5046528e-01  -1.1857590e-02
   1.7873960e-01   6.9039732e-01  -7.3781820e-02
   3.7997308e-01   5.9748542e-01   2.9352123e-02
  -3.9525313e-02   7.1056937e-01  -6.3960270e-02
   8.0217552e-02   7.0254218e-01   4.8018169e-04
  -2.8639143e-01  -6.4842224e-01   3.9464216e-02
  -1.7512846e-01  -6.9314509e-01   8.4002388e-02
  -6.1952278e-02  -7.2236138e-01   1.2833362e-01
   6.1594181e-02  -7.3730367e-01   1.7615057e-01
   1.6307475e-01  -7.0039635e-01   1.0457340e-01
   2.8234229e-01  -6.7481326e-01   1.5072645e-01
  -5.7166491e-01  -4.7061760e-01   1.7783078e-01
  -4.7211923e-01  -5.3754150e-01   8.6731715e-02
  -3.7820289e-01  -6.1833780e-01   1.2765462e-01
   3.6845450e-01  -6.1092733e-01   7.5468310e-02
   4.7815624e-01  -5.4881881e-01   1.3867077e-01
  -6.1226222e-01  -3.7110328e-01   8.9409255e-02
   5.4049178e-01  -4.6242649e-01   6.1419678e-02
   6.1599040e-01  -3.7173191e-01   1.0604895e-01
  -7.1469837e-01  -1.2630045e-01   1.3112181e-01
  -6.7481703e-01  -2.5126057e-01   1.0870647e-01
   6.8240317e-01  -2.7190630e-01   1.6044869e-01
  -7.2835188e-01  -7.6104766e-03   1.4037450e-01
   6.9446652e-01  -1.6859271e-01   8.2414506e-02
   7.2413101e-01  -5.4947158e-02   1.3271567e-01
  -7.1832468e-01   1.1668343e-01   1.3812143e-01
   7.0777508e-01   4.9937537e-02   4.6572644e-02
  -6.8109193e-01   2.0481043e-01   6.0712256e-02
   6.5662700e-01   2.6296904e-01   1.4003826e-02
   6.9843676e-01   1.6437479e-01   9.7165009e-02
  -6.4753717e-01   3.1090323e-01   1.0085207e-01
  -5.9426388e-01   4.3035031e-01   1.5779726e-01
   6.1322783e-01   3.6513652e-01   7.7067335e-02
  -5.2207376e-01   4.8117021e-01   5.0774341e-02
  -4.2364508e-01   5.7305154e-01   7.0544838e-02
   4.7435457e-01   5.3497683e-01   8.4353724e-02
   5.6139388e-01   4.6514090e-01   1.4263225e-01
  -3.1856730e-01   6.4163443e-01   9.1528702e-02
  -2.0880972e-01   6.9240866e-01   1.2148689e-01
  -8.3289389e-02   7.2759232e-01   1.5344357e-01
   1.7213690e-01   6.9188620e-01   7.2655661e-02
   2.8712545e-01   6.6269132e-01   1.1758342e-01
   3.9573944e-01   6.1918732e-01   1.6127570e-01
  -1.0340673e-02   7.1192513e-01   6.6270368e-02
   6.7026260e-02   7.3055027e-01   1.5746801e-01
  -2.7453193e-01  -6.8582914e-01   1.7286976e-01
  -3.8149445e-01  -6.6849378e-01   2.5128070e-01
  -2.7348503e-01  -7.4163949e-01   2.9718034e-01
  -1.6460752e-01  -7.3783771e-01   2.1874295e-01
  -4.5775158e-02  -7.6931305e-01   2.5352993e-01
   9.0905523e-02  -7.8010232e-01   2.8620621e-01
   1.9446757e-01  -7.3628238e-01   2.3222453e-01
   3.1846064e-01  -7.1020548e-01   2.7075082e-01
   4.0166938e-01  -6.3073255e-01   1.9782619e-01
   4.4547604e-01  -6.5781636e-01   3.0576528e-01
  -5.6843217e-01  -5.4601735e-01   2.9230185e-01
  -4.8004834e-01  -5.7850917e-01   2.0812390e-01
   5.7619301e-01  -4.7152281e-01   1.8916032e-01
   5.2212867e-01  -5.7188909e-01   2.6193547e-01
   6.2218676e-01  -4.9570965e-01   3.0801209e-01
  -6.6309597e-01  -3.4584030e-01   1.9807280e-01
  -7.2850007e-01  -3.1151685e-01   3.0115774e-01
  -6.4986795e-01  -4.3608424e-01   2.8018874e-01
   6.6074051e-01  -3.8020066e-01   2.3410123e-01
  -7.2758886e-01  -2.1054249e-01   2.2233931e-01
   7.3681119e-01  -1.6170485e-01   2.1469354e-01
   7.3474424e-01  -2.7341356e-01   2.8312669e-01
   7.9477677e-01  -1.5662388e-01   3.3885703e-01
  -7.6713898e-01  -7.3498853e-02   2.5348017e-01
   7.7217706e-01  -4.4879551e-02   2.5989376e-01
  -7.6211079e-01   7.0852876e-02   2.4135283e-01
   7.3838896e-01   6.2332767e-02   1.7940414e-01
  -7.1799544e-01   2.1527620e-01   2.0254222e-01
   6.7703675e-01   2.7733126e-01   1.5117128e-01
   7.3664567e-01   1.8350583e-01   2.2652310e-01
  -6.7335293e-01   3.3380162e-01   2.0762902e-01
  -7.3956610e-01   2.9734105e-01   3.1139174e-01
   6.4385648e-01   3.8890949e-01   2.0927882e-01
   7.1979922e-01   3.0375561e-01   2.7721653e-01
  -6.6740715e-01   4.1640148e-01   2.8896642e-01
  -5.0666574e-01   5.3506549e-01   1.6743963e-01
  -5.8778050e-01   5.1109733e-01   2.7202713e-01
   4.9910686e-01   5.6415742e-01   2.1193347e-01
   5.9686530e-01   4.9799539e-01   2.6852217e-01
  -4.9296414e-01   6.0536364e-01   2.7594998e-01
  -4.0317835e-01   6.2844245e-01   1.9486576e-01
  -1.6937505e-01   7.4587877e-01   2.4011423e-01
  -2.9644550e-01   6.9604468e-01   2.2014198e-01
   1.9076992e-01   7.2363500e-01   1.9937123e-01
   4.2671498e-01   6.5825597e-01   2.8421435e-01
   3.1174658e-01   6.9905692e-01   2.4140400e-01
  -1.2359394e-01   8.0393328e-01   3.4586941e-01
  -2.7646925e-02   7.7058062e-01   2.5444761e-01
   9.8919065e-02   7.7789281e-01   2.8354132e-01
   2.2443572e-01   7.6939457e-01   3.2065492e-01
  -1.5504819e-01  -7.9736246e-01   3.4358268e-01
  -2.9073972e-01  -7.9324947e-01   4.1401048e-01
  -1.9528508e-01  -8.4117287e-01   4.5826930e-01
  -2.0377338e-02  -8.2083995e-01   3.6223140e-01
  -7.8692071e-02  -8.6124064e-01   4.6151319e-01
   1.1271615e-01  -8.2478609e-01   3.8661649e-01
   4.6476530e-02  -8.7035274e-01   4.7923165e-01
   2.3070984e-01  -7.8405343e-01   3.5415902e-01
   1.8659569e-01  -8.5080925e-01   4.7771336e-01
   3.0531991e-01  -8.1363178e-01   4.7238797e-01
  -4.8468081e-01  -6.4390483e-01   3.3012644e-01
  -5.7641582e-01  -6.1911571e-01   4.1639796e-01
  -4.9299014e-01  -7.0871635e-01   4.5770246e-01
  -3.9173802e-01  -7.2670339e-01   3.7177462e-01
   3.6064820e-01  -7.4629414e-01   3.7886795e-01
   4.8084697e-01  -6.8896862e-01   4.0354719e-01
  -6.5040073e-01  -5.1786655e-01   3.8431034e-01
  -7.2934558e-01  -4.7512625e-01   4.7616514e-01
  -6.6462719e-01  -5.7884748e-01   5.0741151e-01
   5.7357172e-01  -6.0085387e-01   3.8275240e-01
   6.7767650e-01  -5.1101106e-01   4.2288076e-01
  -7.2664919e-01  -4.0219897e-01   3.8245727e-01
   7.0881618e-01  -4.0104040e-01   3.4804000e-01
   7.6258469e-01  -4.1389574e-01   4.6880908e-01
   8.2720061e-01  -3.1906672e-01   5.2452981e-01
  -7.8476247e-01  -1.9322226e-01   3.3491908e-01
  -8.4131781e-01  -1.9788239e-01   4.6011434e-01
  -7.9418120e-01  -2.9994023e-01   4.2330019e-01
   7.7863471e-01  -3.0175223e-01   3.9229546e-01
  -8.2211910e-01  -8.1614217e-02   3.7305103e-01
  -8.7078783e-01  -8.5242208e-02   4.8850500e-01
   8.2692820e-01  -2.1533933e-02   3.7529975e-01
  -8.1136452e-01   3.9784113e-02   3.4367161e-01
  -8.6357757e-01   2.9830659e-02   4.5965110e-01
   7.8775166e-01   8.3010478e-02   3.0073596e-01
  -7.8067746e-01   1.7459879e-01   3.1747864e-01
  -8.3984929e-01   1.4885693e-01   4.3259045e-01
   7.8623866e-01   2.1102469e-01   3.4732368e-01
  -8.0434504e-01   2.6960507e-01   4.2190833e-01
  -7.4657348e-01   3.8643183e-01   4.0461693e-01
   6.8730560e-01   4.2176084e-01   3.3110023e-01
   7.6659581e-01   3.3629987e-01   3.9680263e-01
  -6.7442283e-01   4.8967445e-01   3.8876889e-01
  -5.8905296e-01   5.8584500e-01   3.8299684e-01
   5.3564009e-01   6.0226449e-01   3.3026279e-01
   6.3888053e-01   5.3399070e-01   3.8705631e-01
   7.2969803e-01   4.5601014e-01   4.5063005e-01
  -4.9790705e-01   6.6265762e-01   3.7887377e-01
  -3.8721132e-01   7.0057261e-01   3.1852980e-01
  -4.5092063e-01   7.3272960e-01   4.5036994e-01
   4.6518798e-01   6.9914966e-01   4.0264800e-01
   5.0246998e-01   7.2994727e-01   5.2304670e-01
   5.7469542e-01   6.3712832e-01   4.4468379e-01
  -3.3434671e-01   7.7920501e-01   4.2095110e-01
  -2.5802749e-01   7.6248799e-01   3.2807387e-01
   6.3150054e-03   8.2527061e-01   3.7119755e-01
   1.3631230e-01   8.3002164e-01   4.0569509e-01
   3.4787866e-01   7.4299393e-01   3.6076189e-01
   3.8614175e-01   7.8193594e-01   4.8056409e-01
  -3.9452732e-01  -7.8494159e-01   4.9879178e-01
  -4.1231197e-01  -8.0364479e-01   6.2320038e-01
  -2.8547601e-01  -8.4666448e-01   5.5090060e-01
  -1.5097444e-01  -8.8530924e-01   5.7338738e-01
  -2.1305637e-02  -8.9982967e-01   5.8595805e-01
   1.1504202e-01  -8.9259394e-01   5.8521988e-01
   2.4971658e-01  -8.6508413e-01   5.8830406e-01
   3.7269480e-01  -8.2042536e-01   5.9388914e-01
  -5.9248147e-01  -6.6779712e-01   5.4769279e-01
  -5.0746966e-01  -7.4367614e-01   5.8769099e-01
   4.2876724e-01  -7.6441950e-01   4.9279693e-01
   4.8952758e-01  -7.5800169e-01   6.0615819e-01
   5.4649097e-01  -6.8762427e-01   4.9827742e-01
   5.9468606e-01  -6.7884335e-01   6.0812584e-01
  -7.4582612e-01  -5.0505769e-01   5.9090148e-01
  -6.7541221e-01  -5.9960118e-01   6.4026195e-01
   6.4259620e-01  -6.0155130e-01   5.0392509e-01
   6.8746445e-01  -5.8599118e-01   6.3294575e-01
   7.3405209e-01  -5.0861725e-01   5.4895622e-01
  -7.9667427e-01  -3.8293892e-01   5.1557525e-01
  -8.5159507e-01  -2.8020039e-01   5.6490927e-01
  -8.0506817e-01  -4.0955055e-01   6.3721799e-01
   8.0148847e-01  -4.1484548e-01   6.0813130e-01
  -8.8682354e-01  -1.5624238e-01   5.8888120e-01
   8.3116596e-01  -2.1357066e-01   4.4502440e-01
   8.5004393e-01  -3.0192734e-01   6.5669386e-01
   8.7366814e-01  -2.0185971e-01   5.6580917e-01
  -9.0039042e-01  -1.5033266e-02   5.8913817e-01
   8.5999862e-01  -1.0143978e-01   4.6440203e-01
   8.9753528e-01  -7.7786731e-02   5.9214669e-01
  -8.8828150e-01   1.1096732e-01   5.5848004e-01
   8.3906006e-01   1.1217736e-01   4.1780046e-01
   8.7855149e-01   2.1344714e-02   4.9967535e-01
  -8.5859306e-01   2.3688606e-01   5.3937682e-01
   8.3195326e-01   2.4386094e-01   4.6696793e-01
   8.7831981e-01   1.5034224e-01   5.4102210e-01
  -8.1101730e-01   3.5837767e-01   5.2476212e-01
  -7.4825471e-01   4.6712636e-01   5.0970977e-01
   8.0467930e-01   3.6809035e-01   5.1867326e-01
   8.5730367e-01   2.7825646e-01   5.9580024e-01
  -6.6421566e-01   5.6863967e-01   4.8689289e-01
  -7.2522418e-01   5.3743257e-01   6.1050366e-01
   6.7584814e-01   5.6574147e-01   5.0748261e-01
   7.5910337e-01   4.8090525e-01   5.7644593e-01
  -6.4189375e-01   6.3125343e-01   5.8740141e-01
  -5.6572892e-01   6.7175600e-01   4.9798478e-01
  -5.7440043e-01   6.9566745e-01   6.5580796e-01
   6.0304665e-01   6.6262359e-01   5.6215866e-01
   6.1384454e-01   6.5730391e-01   6.7626084e-01
   6.9551596e-01   5.7637121e-01   6.3502519e-01
  -4.9896764e-01   7.4851040e-01   5.8248915e-01
  -3.9438233e-01   7.9751187e-01   5.3566177e-01
  -2.1209604e-01   8.2941603e-01   4.4007469e-01
  -2.8968481e-01   8.4363629e-01   5.4458402e-01
  -8.6416375e-02   8.6131047e-01   4.6356796e-01
   4.3882401e-02   8.7417412e-01   4.8942222e-01
   2.6222248e-01   8.1480892e-01   4.3973830e-01
   4.2245619e-01   7.9733862e-01   6.0625636e-01
   2.9847130e-01   8.4486079e-01   5.6254048e-01
   5.1827281e-01   7.3825895e-01   6.5726165e-01
  -1.7500654e-01   8.7954261e-01   5.6632243e-01
  -5.0429906e-02   8.9884662e-01   5.8723914e-01
   8.0959296e-02   8.9904100e-01   6.1088090e-01
   1.7647256e-01   8.7110990e-01   5.3235357e-01
  -3.8530548e-01  -7.7945279e-01   7.5545554e-01
  -3.1240825e-01  -8.4465907e-01   6.6882201e-01
  -1.9973536e-01  -8.7625113e-01   6.7965372e-01
  -7.6937702e-02  -8.9020434e-01   7.0098959e-01
   5.1494095e-02  -8.9093678e-01   7.0461057e-01
   1.7815358e-01  -8.7653893e-01   6.9771921e-01
   3.0762342e-01  -8.3765550e-01   7.0482722e-01
  -5.8992957e-01  -6.7649597e-01   6.8515205e-01
  -4.9172575e-01  -7.3614679e-01   7.2428919e-01
   4.1707784e-01  -7.8246828e-01   7.2081175e-01
   5.2222916e-01  -7.1498420e-01   7.2399071e-01
   6.1532904e-01  -6.3779305e-01   7.2194087e-01
  -7.3337469e-01  -5.0018448e-01   7.1819185e-01
  -6.4078129e-01  -5.7475509e-01   7.6891968e-01
   6.6126670e-01  -5.4520782e-01   7.7417733e-01
   7.4739570e-01  -4.9290647e-01   6.9463358e-01
  -8.4089287e-01  -3.1258347e-01   6.8727288e-01
  -7.6781653e-01  -3.8824447e-01   7.6947883e-01
   7.8772363e-01  -3.8226752e-01   7.4473042e-01
  -8.7115916e-01  -2.0140205e-01   6.9886765e-01
   8.1317296e-01  -2.5997170e-01   7.7863890e-01
   8.7879781e-01  -1.7681803e-01   6.9024462e-01
  -8.9064389e-01  -7.2571065e-02   7.0074236e-01
   8.8568082e-01  -4.7637034e-02   7.2011348e-01
  -8.9370607e-01   6.5076445e-02   6.9161415e-01
   9.0191887e-01   5.0179671e-02   6.2706276e-01
  -8.8124635e-01   1.8988538e-01   6.6218834e-01
   8.8300947e-01   1.7736700e-01   6.6838065e-01
  -8.4440141e-01   3.1910981e-01   6.4935569e-01
  -7.9461610e-01   4.2901648e-01   6.4340603e-01
   8.1246026e-01   3.9286092e-01   6.5239327e-01
   8.3331752e-01   2.9012884e-01   7.3094726e-01
  -7.3006730e-01   4.9445387e-01   7.3232351e-01
   7.4104281e-01   4.9062651e-01   7.1543973e-01
  -6.5671044e-01   6.0057924e-01   7.1214822e-01
  -5.5034485e-01   6.5310442e-01   7.7818488e-01
   5.4023536e-01   6.6806172e-01   7.7123049e-01
   6.4121489e-01   5.7679844e-01   7.6645074e-01
  -4.7540238e-01   7.4710634e-01   7.2364972e-01
  -3.9212596e-01   8.1273285e-01   6.5328669e-01
  -2.7668308e-01   8.5634267e-01   6.7297135e-01
   2.8888190e-01   8.0053380e-01   7.8206932e-01
   3.3726261e-01   8.3220150e-01   6.8349647e-01
   4.2681097e-01   7.6075999e-01   7.5064343e-01
  -1.5434975e-01   8.8247658e-01   6.9240597e-01
  -2.8152526e-02   8.9036281e-01   7.0958067e-01
   9.9218119e-02   8.7966377e-01   7.2436212e-01
   2.1467748e-01   8.7433473e-01   6.7065093e-01
  -2.5847000e-01  -8.1148993e-01   7.8130883e-01
  -1.3818847e-01  -8.2585192e-01   7.9823036e-01
  -1.0242062e-02  -8.2937931e-01   8.0654779e-01
   1.1528174e-01  -8.2038789e-01   8.0755384e-01
   2.3036479e-01  -8.0747066e-01   7.9562311e-01
  -5.3629814e-01  -6.3245008e-01   8.0677187e-01
  -4.2616312e-01  -6.7371682e-01   8.3541546e-01
  -3.1674296e-01  -7.1590056e-01   8.4630148e-01
  -2.0083907e-01  -7.2303295e-01   8.6781205e-01
  -7.1957945e-02  -7.3502123e-01   8.7482385e-01
   6.5696100e-02  -7.3135490e-01   8.7723008e-01
   2.0513173e-01  -7.1238904e-01   8.7320671e-01
   3.3189184e-01  -7.4728664e-01   8.1792335e-01
   4.4281271e-01  -6.8421601e-01   8.2035325e-01
   5.4222271e-01  -6.0908486e-01   8.1993491e-01
  -6.6698202e-01  -4.5437161e-01   8.2732195e-01
  -5.5567307e-01  -5.1345717e-01   8.6400218e-01
  -4.3446139e-01  -5.6150160e-01   8.9019687e-01
   4.4216293e-01  -5.5838994e-01   8.8903166e-01
   6.9021335e-01  -4.3861994e-01   8.1781500e-01
   5.7031021e-01  -4.9648890e-01   8.6427384e-01
  -7.9519353e-01  -2.6054047e-01   7.9882573e-01
  -6.9383735e-01  -3.2240953e-01   8.5854443e-01
  -5.8182056e-01  -3.7937120e-01   8.9771719e-01
   7.1190452e-01  -3.2211365e-01   8.4735192e-01
   5.9308330e-01  -3.7563146e-01   8.9413293e-01
  -8.2373726e-01  -1.3235469e-01   8.0149837e-01
  -7.1817376e-01  -1.8647354e-01   8.7282633e-01
   6.1304079e-01  -2.4755742e-01   9.1255882e-01
   8.2581785e-01  -1.3179503e-01   7.9938962e-01
   7.2710810e-01  -2.0019940e-01   8.6550620e-01
  -8.4047012e-01   1.7494463e-03   7.9474193e-01
  -7.4432116e-01  -5.5286256e-02   8.7024178e-01
   8.0716275e-01   1.3244219e-03   8.2721930e-01
   7.3452144e-01  -7.6285119e-02   8.7485997e-01
  -8.3692764e-01   1.4059699e-01   7.8508432e-01
  -7.6014991e-01   8.2425010e-02   8.5885983e-01
   8.6799699e-01   7.6003650e-02   7.5236192e-01
   7.5886484e-01   1.0823662e-01   8.5758428e-01
  -8.2816860e-01   2.6067805e-01   7.5752661e-01
  -7.4509237e-01   2.3572138e-01   8.4727735e-01
   8.2559055e-01   1.8385853e-01   7.8853434e-01
   7.4161488e-01   2.5386252e-01   8.4555866e-01
  -7.7422813e-01   3.6674666e-01   7.7465060e-01
   7.6363906e-01   3.8127322e-01   7.7888597e-01
   6.0594009e-01   2.7793780e-01   9.1024451e-01
   6.7586417e-01   3.5722396e-01   8.5895413e-01
  -6.1578722e-01   5.4305794e-01   8.1478260e-01
  -6.8057139e-01   4.3867415e-01   8.2504310e-01
  -5.6373113e-01   4.4061022e-01   8.8736947e-01
   5.4011144e-01   5.4868291e-01   8.5533338e-01
   5.6653248e-01   4.1780740e-01   8.9320009e-01
   4.5277860e-01   4.5739711e-01   9.1962720e-01
   6.6029749e-01   4.7519090e-01   8.2169390e-01
  -4.3036563e-01   6.7673555e-01   8.3154174e-01
  -4.9863785e-01   5.6529443e-01   8.6573955e-01
  -3.5669941e-01   7.8043637e-01   7.7273607e-01
  -3.6885863e-01   5.7520081e-01   9.0293506e-01
  -3.0668421e-01   6.9766421e-01   8.6049088e-01
   3.4358345e-01   7.0165488e-01   8.4744214e-01
   4.0270020e-01   5.7189442e-01   8.9538618e-01
   2.7687233e-01   6.0352228e-01   9.1136114e-01
   4.5384641e-01   6.5638580e-01   8.3476180e-01
  -2.3742440e-01   8.1168472e-01   7.8867652e-01
  -1.8635809e-01   7.2503040e-01   8.6890799e-01
  -1.1029950e-01   8.2655324e-01   8.0194630e-01
  -5.2868923e-02   7.3663335e-01   8.7482786e-01
   2.3723616e-02   8.2401474e-01   8.1160248e-01
   8.8483499e-02   7.3650350e-01   8.7293604e-01
   1.6814170e-01   8.1926589e-01   7.9930984e-01
   2.1808331e-01   7.1763679e-01   8.6803472e-01
  -3.0402923e-01  -6.0984314e-01   9.0378475e-01
  -1.5978175e-01  -6.2651278e-01   9.1846285e-01
  -1.8050329e-02  -6.3394784e-01   9.2323392e-01
   1.1664217e-01  -6.2156275e-01   9.2390845e-01
   2.4353537e-01  -5.9447696e-01   9.2008405e-01
   3.3906700e-01  -6.3645525e-01   8.8441432e-01
  -4.6608880e-01  -4.3012846e-01   9.2322392e-01
  -3.4484540e-01  -4.7672759e-01   9.3924316e-01
  -2.2376187e-01  -5.1703626e-01   9.4699939e-01
  -8.3614912e-02  -5.2914652e-01   9.5488627e-01
   4.8296561e-02  -5.1908628e-01   9.5872109e-01
   1.8568469e-01  -5.0038787e-01   9.5542535e-01
   3.3433642e-01  -4.9325837e-01   9.3678524e-01
   4.6697250e-01  -4.3573950e-01   9.2152484e-01
  -6.0475569e-01  -2.4279299e-01   9.1642947e-01
  -4.8971045e-01  -2.9196417e-01   9.4496344e-01
  -3.7413317e-01  -3.3987216e-01   9.6275525e-01
  -1.4530839e-01  -4.1984569e-01   9.7655510e-01
  -2.6311062e-02  -4.0758860e-01   9.8348013e-01
   1.0583346e-01  -4.0448731e-01   9.8169053e-01
   2.4757641e-01  -3.9292969e-01   9.7230177e-01
   3.7407160e-01  -3.5785018e-01   9.5966796e-01
   4.9308559e-01  -3.0226369e-01   9.4242817e-01
  -6.2375767e-01  -1.0960813e-01   9.2356942e-01
  -5.0526724e-01  -1.5512494e-01   9.5681910e-01
  -3.8845844e-01  -2.0287906e-01   9.7777727e-01
  -2.6632191e-01  -2.5470599e-01   9.9029552e-01
  -2.5507435e-01  -3.7961095e-01   9.7382650e-01
  -1.2949885e-01  -2.9759366e-01   9.9679700e-01
   1.6743832e-02  -2.9763060e-01   1.0002355e+00
   1.5340473e-01  -2.9442660e-01   9.9576639e-01
   2.8524791e-01  -2.6628158e-01   9.8670244e-01
   3.9811879e-01  -2.1323744e-01   9.7503458e-01
   5.1244071e-01  -1.6644478e-01   9.5404161e-01
   6.2794998e-01  -1.1497823e-01   9.2164223e-01
  -6.5083205e-01   1.4948780e-02   9.1669819e-01
  -5.2349298e-01  -1.9754517e-02   9.5805720e-01
  -4.0830488e-01  -5.8429867e-02   9.8274135e-01
  -2.9431526e-01  -1.1422401e-01   9.9798531e-01
   1.9932458e-01  -1.7367740e-01   1.0041343e+00
   3.0469957e-01  -1.2197228e-01   9.9629427e-01
   4.2089329e-01  -6.7962915e-02   9.8011996e-01
   5.3931252e-01  -3.1303874e-02   9.5364806e-01
   6.7185888e-01   2.2111109e-02   9.0784928e-01
  -6.7104809e-01   1.4486389e-01   9.0147849e-01
  -5.5730270e-01   1.0117109e-01   9.4609169e-01
  -4.2525900e-01   8.6316162e-02   9.7863715e-01
  -3.0833092e-01   2.8726452e-02   9.9877411e-01
   3.1745412e-01   1.2672151e-01   9.9436417e-01
   3.0567108e-01   2.9597375e-03   9.9928446e-01
   4.3518808e-01   7.0315429e-02   9.7725640e-01
   5.6625468e-01   8.2079911e-02   9.4434254e-01
  -6.0976110e-01   2.4096280e-01   9.1482118e-01
  -4.9908001e-01   2.0304326e-01   9.5403955e-01
  -3.9778343e-01   2.3587415e-01   9.7272832e-01
  -2.8436505e-01   3.0951140e-01   9.8127409e-01
  -3.0548896e-01   1.6097208e-01   9.9385333e-01
  -1.9023131e-01   2.2579816e-01   1.0005858e+00
   2.8841102e-01   2.6566669e-01   9.8637510e-01
   2.0036627e-01   1.7882189e-01   1.0036794e+00
   1.5120265e-01   2.9142828e-01   9.9627875e-01
   4.0591040e-01   2.1629035e-01   9.7327181e-01
   5.1964387e-01   1.8841576e-01   9.5011259e-01
   6.5800589e-01   1.6530221e-01   9.0511441e-01
  -6.6129845e-01   3.3603689e-01   8.7294794e-01
  -5.1636245e-01   3.3368429e-01   9.3031940e-01
  -3.9380865e-01   3.6087461e-01   9.5531135e-01
  -1.8458711e-01   3.7887534e-01   9.8105812e-01
  -4.4923251e-02   4.1486822e-01   9.8184272e-01
  -9.5057814e-02   2.9448165e-01   9.9880283e-01
   9.3259224e-02   4.0521867e-01   9.8211992e-01
   2.3060241e-02   2.9172558e-01   1.0009037e+00
   2.3360698e-01   3.8603494e-01   9.7512114e-01
   3.6979005e-01   3.5763834e-01   9.6049656e-01
   4.8789062e-01   3.2216399e-01   9.4043701e-01
  -4.3951062e-01   4.6470169e-01   9.2116865e-01
  -3.0037230e-01   4.5912348e-01   9.5128435e-01
  -1.7215945e-01   4.9662824e-01   9.5759451e-01
  -5.7033729e-02   5.3304580e-01   9.5478363e-01
   6.2794119e-02   5.1939922e-01   9.5823677e-01
   1.9190158e-01   5.0451873e-01   9.5376901e-01
   3.2170050e-01   4.7942982e-01   9.4273949e-01
  -2.4719369e-01   5.9446047e-01   9.1954610e-01
  -1.2471056e-01   6.3001245e-01   9.2015783e-01
   1.3870600e-02   6.3956147e-01   9.2113435e-01
   1.4423359e-01   6.2237139e-01   9.2145958e-01
  -1.7659336e-01  -1.6896726e-01   1.0061957e+00
  -4.6360723e-02  -1.9211859e-01   1.0103361e+00
   8.0645216e-02  -1.7806899e-01   1.0105041e+00
  -1.9490115e-01  -2.8841720e-02   1.0103839e+00
  -8.1691199e-02  -7.6860836e-02   1.0155346e+00
   3.9851076e-02  -6.4678383e-02   1.0168534e+00
   1.7104568e-01  -5.3776656e-02   1.0117039e+00
  -1.8434917e-01   1.0017064e-01   1.0093495e+00
  -6.6956035e-02   4.3238138e-02   1.0167411e+00
   5.8510706e-02   5.5712822e-02   1.0167073e+00
   1.8584899e-01   6.4808684e-02   1.0103994e+00
  -5.5926448e-02   1.6731808e-01   1.0119062e+00
   7.4300161e-02   1.7340099e-01   1.0110240e+00
